<?xml version="1.0" encoding="UTF-8" standalone="no"?>
<svg
   xmlns:dc="http://purl.org/dc/elements/1.1/"
   xmlns:cc="http://creativecommons.org/ns#"
   xmlns:rdf="http://www.w3.org/1999/02/22-rdf-syntax-ns#"
   xmlns:svg="http://www.w3.org/2000/svg"
   xmlns="http://www.w3.org/2000/svg"
   xmlns:sodipodi="http://sodipodi.sourceforge.net/DTD/sodipodi-0.dtd"
   xmlns:inkscape="http://www.inkscape.org/namespaces/inkscape"
   inkscape:export-ydpi="117.647"
   inkscape:export-xdpi="117.647"
   inkscape:export-filename="/Users/yuezhang/Box/APLab-Projects/RhythmicAttention/Documents/Proposal/Oscillation.png"
   inkscape:version="1.0.2 (e86c8708, 2021-01-15)"
   sodipodi:docname="Result.svg"
   id="svg172"
   version="1.1"
   height="573.75195"
   width="1314.9585"
   style="font-style:normal;font-weight:normal;font-size:12px;font-family:Dialog;color-interpolation:auto;fill:#000000;fill-opacity:1;stroke:#000000;stroke-width:1;stroke-linecap:square;stroke-linejoin:miter;stroke-miterlimit:10;stroke-dasharray:none;stroke-dashoffset:0;stroke-opacity:1;color-rendering:auto;image-rendering:auto;shape-rendering:auto;text-rendering:auto">
  <metadata
     id="metadata176">
    <rdf:RDF>
      <cc:Work
         rdf:about="">
        <dc:format>image/svg+xml</dc:format>
        <dc:type
           rdf:resource="http://purl.org/dc/dcmitype/StillImage" />
      </cc:Work>
    </rdf:RDF>
  </metadata>
  <sodipodi:namedview
     inkscape:current-layer="svg172"
     inkscape:window-maximized="1"
     inkscape:window-y="0"
     inkscape:window-x="1440"
     inkscape:cy="206.68637"
     inkscape:cx="631.98193"
     inkscape:zoom="0.85105651"
     showgrid="false"
     id="namedview174"
     inkscape:window-height="1052"
     inkscape:window-width="1920"
     inkscape:pageshadow="2"
     inkscape:pageopacity="0"
     guidetolerance="10"
     gridtolerance="10"
     objecttolerance="10"
     borderopacity="1"
     bordercolor="#666666"
     pagecolor="#ffffff"
     inkscape:document-rotation="0" />
  <!--Generated by the Batik Graphics2D SVG Generator-->
  <defs
     id="genericDefs">
    <marker
       style="overflow:visible"
       id="Arrow1Mend"
       refX="0"
       refY="0"
       orient="auto"
       inkscape:stockid="Arrow1Mend"
       inkscape:isstock="true">
      <path
         transform="matrix(-0.4,0,0,-0.4,-4,0)"
         style="fill:#000000;fill-opacity:1;fill-rule:evenodd;stroke:#000000;stroke-width:1pt;stroke-opacity:1"
         d="M 0,0 5,-5 -12.5,0 5,5 Z"
         id="path1326" />
    </marker>
  </defs>
  <g
     transform="matrix(1.019609,0,0,0.88887664,52.452084,117.51534)"
     id="g170">
    <defs
       id="defs1">
      <clipPath
         id="clipPath1"
         clipPathUnits="userSpaceOnUse">
        <path
           id="path3"
           d="M 0,0 H 600 V 400 H 0 Z" />
      </clipPath>
      <font
         vert-adv-y="1024"
         vert-origin-y="768"
         vert-origin-x="512"
         horiz-origin-y="0"
         horiz-origin-x="0"
         id="font1"
         horiz-adv-x="75">
        <font-face
           id="font-face6"
           style="font-style:normal; font-family:SansSerif; font-weight:normal;"
           units-per-em="100"
           descent="21.972656"
           ascent="100.53711" />
        <missing-glyph
           id="missing-glyph8"
           d="M12.5 0 L12.5 62.5 L62.5 62.5 L62.5 0 L12.5 0 ZM14.0625 1.5625 L60.9375 1.5625 L60.9375 60.9375 L14.0625 60.9375 L14.0625 1.5625 Z"
           horiz-adv-x="75.0" />
        <glyph
           id="glyph10"
           d="M4.1562 35.2969 Q4.1562 48 6.7656 55.7422 Q9.375 63.4844 14.5234 67.6797 Q19.6719 71.875 27.4844 71.875 Q33.25 71.875 37.5938 69.5547 Q41.9375 67.2344 44.7734 62.8672 Q47.6094 58.5 49.2188 52.2266 Q50.8281 45.9531 50.8281 35.2969 Q50.8281 22.7031 48.2422 14.9688 Q45.6562 7.2344 40.5078 3.0078 Q35.3594 -1.2188 27.4844 -1.2188 Q17.1406 -1.2188 11.2344 6.2031 Q4.1562 15.1406 4.1562 35.2969 ZM13.1875 35.2969 Q13.1875 17.6719 17.3125 11.8359 Q21.4375 6 27.4844 6 Q33.5469 6 37.6719 11.8594 Q41.7969 17.7188 41.7969 35.2969 Q41.7969 52.9844 37.6719 58.7891 Q33.5469 64.5938 27.3906 64.5938 Q21.3438 64.5938 17.7188 59.4688 Q13.1875 52.9375 13.1875 35.2969 Z"
           horiz-adv-x="55.615234"
           unicode="0" />
        <glyph
           id="glyph12"
           d="M50.3438 8.4531 L50.3438 0 L3.0312 0 Q2.9375 3.1719 4.0469 6.1094 Q5.8594 10.9375 9.8359 15.625 Q13.8125 20.3125 21.3438 26.4688 Q33.0156 36.0312 37.1172 41.625 Q41.2188 47.2188 41.2188 52.2031 Q41.2188 57.4219 37.4766 61.0078 Q33.7344 64.5938 27.7344 64.5938 Q21.3906 64.5938 17.5781 60.7891 Q13.7656 56.9844 13.7188 50.25 L4.6875 51.1719 Q5.6094 61.2812 11.6641 66.5781 Q17.7188 71.875 27.9375 71.875 Q38.2344 71.875 44.2422 66.1641 Q50.25 60.4531 50.25 52 Q50.25 47.7031 48.4922 43.5547 Q46.7344 39.4062 42.6562 34.8125 Q38.5781 30.2188 29.1094 22.2188 Q21.1875 15.5781 18.9453 13.2109 Q16.7031 10.8438 15.2344 8.4531 L50.3438 8.4531 Z"
           horiz-adv-x="55.615234"
           unicode="2" />
        <glyph
           id="glyph14"
           d="M9.0781 0 L9.0781 10.0156 L19.0938 10.0156 L19.0938 0 L9.0781 0 Z"
           horiz-adv-x="27.783203"
           unicode="." />
        <glyph
           id="glyph16"
           d="M32.3281 0 L32.3281 17.1406 L1.2656 17.1406 L1.2656 25.2031 L33.9375 71.5781 L41.1094 71.5781 L41.1094 25.2031 L50.7812 25.2031 L50.7812 17.1406 L41.1094 17.1406 L41.1094 0 L32.3281 0 ZM32.3281 25.2031 L32.3281 57.4688 L9.9062 25.2031 L32.3281 25.2031 Z"
           horiz-adv-x="55.615234"
           unicode="4" />
        <glyph
           id="glyph18"
           d="M49.75 54.0469 L41.0156 53.375 Q39.8438 58.5469 37.7031 60.8906 Q34.125 64.6562 28.9062 64.6562 Q24.7031 64.6562 21.5312 62.3125 Q17.3906 59.2812 14.9922 53.4688 Q12.5938 47.6562 12.5 36.9219 Q15.6719 41.75 20.2656 44.0938 Q24.8594 46.4375 29.8906 46.4375 Q38.6719 46.4375 44.8516 39.9688 Q51.0312 33.5 51.0312 23.25 Q51.0312 16.5 48.125 10.7188 Q45.2188 4.9375 40.1406 1.8594 Q35.0625 -1.2188 28.6094 -1.2188 Q17.625 -1.2188 10.6953 6.8594 Q3.7656 14.9375 3.7656 33.5 Q3.7656 54.25 11.4219 63.6719 Q18.1094 71.875 29.4375 71.875 Q37.8906 71.875 43.2891 67.1406 Q48.6875 62.4062 49.75 54.0469 ZM13.875 23.1875 Q13.875 18.6562 15.7969 14.5078 Q17.7188 10.3594 21.1875 8.1797 Q24.6562 6 28.4688 6 Q34.0312 6 38.0391 10.4922 Q42.0469 14.9844 42.0469 22.7031 Q42.0469 30.125 38.0859 34.3984 Q34.125 38.6719 28.125 38.6719 Q22.1719 38.6719 18.0234 34.3984 Q13.875 30.125 13.875 23.1875 Z"
           horiz-adv-x="55.615234"
           unicode="6" />
        <glyph
           id="glyph20"
           d="M12.3594 -21.0469 L6.0625 -21.0469 Q20.6562 2.3906 20.6562 25.875 Q20.6562 35.0625 18.5625 44.0938 Q16.8906 51.4219 13.9219 58.1562 Q12.0156 62.5469 6.0625 72.7969 L12.3594 72.7969 Q21.5312 60.5469 25.9219 48.1875 Q29.6875 37.5469 29.6875 25.9219 Q29.6875 12.75 24.6328 0.4453 Q19.5781 -11.8594 12.3594 -21.0469 Z"
           horiz-adv-x="33.30078"
           unicode=")" />
        <glyph
           id="glyph22"
           d="M3.0781 15.4844 L11.7656 16.8438 Q12.5 11.625 15.8438 8.8438 Q19.1875 6.0625 25.2031 6.0625 Q31.25 6.0625 34.1797 8.5234 Q37.1094 10.9844 37.1094 14.3125 Q37.1094 17.2812 34.5156 19 Q32.7188 20.1719 25.5312 21.9688 Q15.875 24.4219 12.1406 26.2031 Q8.4062 27.9844 6.4766 31.1328 Q4.5469 34.2812 4.5469 38.0938 Q4.5469 41.5469 6.1328 44.5078 Q7.7188 47.4688 10.4531 49.4219 Q12.5 50.9219 16.0391 51.9766 Q19.5781 53.0312 23.6406 53.0312 Q29.7344 53.0312 34.3516 51.2734 Q38.9688 49.5156 41.1641 46.5078 Q43.3594 43.5 44.1875 38.4844 L35.5938 37.3125 Q35.0156 41.3125 32.2031 43.5547 Q29.3906 45.7969 24.2656 45.7969 Q18.2188 45.7969 15.625 43.7969 Q13.0312 41.7969 13.0312 39.1094 Q13.0312 37.4062 14.1094 36.0312 Q15.1875 34.625 17.4844 33.6875 Q18.7969 33.2031 25.25 31.4531 Q34.5781 28.9531 38.2578 27.3672 Q41.9375 25.7812 44.0391 22.7578 Q46.1406 19.7344 46.1406 15.2344 Q46.1406 10.8438 43.5781 6.9609 Q41.0156 3.0781 36.1797 0.9531 Q31.3438 -1.1719 25.25 -1.1719 Q15.1406 -1.1719 9.8438 3.0312 Q4.5469 7.2344 3.0781 15.4844 Z"
           horiz-adv-x="50.0"
           unicode="s" />
        <glyph
           id="glyph24"
           d="M23.3906 -21.0469 Q16.1094 -11.8594 11.0859 0.4453 Q6.0625 12.75 6.0625 25.9219 Q6.0625 37.5469 9.8125 48.1875 Q14.2031 60.5469 23.3906 72.7969 L29.6875 72.7969 Q23.7812 62.6406 21.875 58.2969 Q18.8906 51.5625 17.1875 44.2344 Q15.0938 35.1094 15.0938 25.875 Q15.0938 2.3906 29.6875 -21.0469 L23.3906 -21.0469 Z"
           horiz-adv-x="33.30078"
           unicode="(" />
        <glyph
           id="glyph26"
           d=""
           horiz-adv-x="27.783203"
           unicode=" " />
        <glyph
           id="glyph28"
           d="M-0.1406 0 L27.3438 71.5781 L37.5469 71.5781 L66.8438 0 L56.0625 0 L47.7031 21.6875 L17.7812 21.6875 L9.9062 0 L-0.1406 0 ZM20.5156 29.3906 L44.7812 29.3906 L37.3125 49.2188 Q33.8906 58.25 32.2344 64.0625 Q30.8594 57.1719 28.375 50.3906 L20.5156 29.3906 Z"
           horiz-adv-x="66.69922"
           unicode="A" />
        <glyph
           id="glyph30"
           d="M4.8281 34.8594 Q4.8281 52.6875 14.3984 62.7734 Q23.9688 72.8594 39.1094 72.8594 Q49.0312 72.8594 56.9844 68.1172 Q64.9375 63.375 69.1172 54.9062 Q73.2969 46.4375 73.2969 35.6875 Q73.2969 24.8125 68.8984 16.2188 Q64.5 7.625 56.4453 3.2031 Q48.3906 -1.2188 39.0625 -1.2188 Q28.9531 -1.2188 20.9922 3.6641 Q13.0312 8.5469 8.9297 16.9922 Q4.8281 25.4375 4.8281 34.8594 ZM14.5938 34.7188 Q14.5938 21.7812 21.5547 14.3359 Q28.5156 6.8906 39.0156 6.8906 Q49.7031 6.8906 56.6172 14.4062 Q63.5312 21.9219 63.5312 35.75 Q63.5312 44.4844 60.5781 51 Q57.625 57.5156 51.9297 61.1094 Q46.2344 64.7031 39.1562 64.7031 Q29.1094 64.7031 21.8516 57.7891 Q14.5938 50.875 14.5938 34.7188 Z"
           horiz-adv-x="77.7832"
           unicode="O" />
        <glyph
           id="glyph32"
           d="M4.5 23 L13.4219 23.7812 Q14.0625 18.4062 16.3828 14.9688 Q18.7031 11.5312 23.5859 9.4062 Q28.4688 7.2812 34.5781 7.2812 Q39.9844 7.2812 44.1406 8.8906 Q48.2969 10.5 50.3203 13.3047 Q52.3438 16.1094 52.3438 19.4375 Q52.3438 22.7969 50.3906 25.3125 Q48.4375 27.8281 43.9531 29.5469 Q41.0625 30.6719 31.2031 33.0391 Q21.3438 35.4062 17.3906 37.5 Q12.25 40.1875 9.7422 44.1641 Q7.2344 48.1406 7.2344 53.0781 Q7.2344 58.5 10.3047 63.2109 Q13.375 67.9219 19.2891 70.3594 Q25.2031 72.7969 32.4219 72.7969 Q40.375 72.7969 46.4609 70.2344 Q52.5469 67.6719 55.8125 62.6953 Q59.0781 57.7188 59.3281 51.4219 L50.25 50.7344 Q49.5156 57.5156 45.2891 60.9844 Q41.0625 64.4531 32.8125 64.4531 Q24.2188 64.4531 20.2891 61.3047 Q16.3594 58.1562 16.3594 53.7188 Q16.3594 49.8594 19.1406 47.3594 Q21.875 44.875 33.4219 42.2656 Q44.9688 39.6562 49.2656 37.7031 Q55.5156 34.8125 58.4922 30.3984 Q61.4688 25.9844 61.4688 20.2188 Q61.4688 14.5 58.2031 9.4453 Q54.9375 4.3906 48.8047 1.5859 Q42.6719 -1.2188 35.0156 -1.2188 Q25.2969 -1.2188 18.7266 1.6094 Q12.1562 4.4375 8.4219 10.1328 Q4.6875 15.8281 4.5 23 Z"
           horiz-adv-x="66.69922"
           unicode="S" />
        <glyph
           id="glyph34"
           d="M4.7344 62.2031 L4.7344 70.6562 L51.0781 70.6562 L51.0781 63.8125 Q44.2344 56.5469 37.5234 44.4844 Q30.8125 32.4219 27.1562 19.6719 Q24.5156 10.6875 23.7812 0 L14.75 0 Q14.8906 8.4531 18.0625 20.4141 Q21.2344 32.375 27.1719 43.4844 Q33.1094 54.5938 39.7969 62.2031 L4.7344 62.2031 Z"
           horiz-adv-x="55.615234"
           unicode="7" />
        <glyph
           id="glyph36"
           d="M17.6719 38.8125 Q12.2031 40.8281 9.5703 44.5391 Q6.9375 48.25 6.9375 53.4219 Q6.9375 61.2344 12.5547 66.5547 Q18.1719 71.875 27.4844 71.875 Q36.8594 71.875 42.5781 66.4297 Q48.2969 60.9844 48.2969 53.1719 Q48.2969 48.1875 45.6797 44.5078 Q43.0625 40.8281 37.75 38.8125 Q44.3438 36.6719 47.7812 31.8828 Q51.2188 27.0938 51.2188 20.4531 Q51.2188 11.2812 44.7266 5.0312 Q38.2344 -1.2188 27.6406 -1.2188 Q17.0469 -1.2188 10.5469 5.0547 Q4.0469 11.3281 4.0469 20.7031 Q4.0469 27.6875 7.5938 32.3984 Q11.1406 37.1094 17.6719 38.8125 ZM15.9219 53.7188 Q15.9219 48.6406 19.1953 45.4141 Q22.4688 42.1875 27.6875 42.1875 Q32.7656 42.1875 36.0156 45.3828 Q39.2656 48.5781 39.2656 53.2188 Q39.2656 58.0625 35.9141 61.3594 Q32.5625 64.6562 27.5938 64.6562 Q22.5625 64.6562 19.2422 61.4297 Q15.9219 58.2031 15.9219 53.7188 ZM13.0938 20.6562 Q13.0938 16.8906 14.875 13.375 Q16.6562 9.8594 20.1719 7.9297 Q23.6875 6 27.7344 6 Q34.0312 6 38.1328 10.0547 Q42.2344 14.1094 42.2344 20.3594 Q42.2344 26.7031 38.0156 30.8594 Q33.7969 35.0156 27.4375 35.0156 Q21.2344 35.0156 17.1641 30.9141 Q13.0938 26.8125 13.0938 20.6562 Z"
           horiz-adv-x="55.615234"
           unicode="8" />
        <glyph
           id="glyph38"
           d="M5.4688 16.5469 L13.9219 17.3281 Q14.9844 11.375 18.0156 8.6875 Q21.0469 6 25.7812 6 Q29.8281 6 32.8828 7.8594 Q35.9375 9.7188 37.8906 12.8203 Q39.8438 15.9219 41.1641 21.1953 Q42.4844 26.4688 42.4844 31.9375 Q42.4844 32.5156 42.4375 33.6875 Q39.7969 29.5 35.2344 26.8828 Q30.6719 24.2656 25.3438 24.2656 Q16.4531 24.2656 10.3047 30.7109 Q4.1562 37.1562 4.1562 47.7031 Q4.1562 58.5938 10.5781 65.2344 Q17 71.875 26.6562 71.875 Q33.6406 71.875 39.4297 68.1172 Q45.2188 64.3594 48.2188 57.3984 Q51.2188 50.4375 51.2188 37.25 Q51.2188 23.5312 48.2422 15.4062 Q45.2656 7.2812 39.3828 3.0312 Q33.5 -1.2188 25.5938 -1.2188 Q17.1875 -1.2188 11.8672 3.4453 Q6.5469 8.1094 5.4688 16.5469 ZM41.4531 48.1406 Q41.4531 55.7188 37.4297 60.1562 Q33.4062 64.5938 27.7344 64.5938 Q21.875 64.5938 17.5312 59.8125 Q13.1875 55.0312 13.1875 47.4062 Q13.1875 40.5781 17.3125 36.3047 Q21.4375 32.0312 27.4844 32.0312 Q33.5938 32.0312 37.5234 36.3047 Q41.4531 40.5781 41.4531 48.1406 Z"
           horiz-adv-x="55.615234"
           unicode="9" />
        <glyph
           id="glyph40"
           d="M37.25 0 L28.4688 0 L28.4688 56 Q25.2969 52.9844 20.1406 49.9531 Q14.9844 46.9219 10.8906 45.4062 L10.8906 53.9062 Q18.2656 57.375 23.7812 62.3047 Q29.2969 67.2344 31.5938 71.875 L37.25 71.875 L37.25 0 Z"
           horiz-adv-x="55.615234"
           unicode="1" />
        <glyph
           id="glyph42"
           d="M42.0938 16.7031 L51.1719 15.5781 Q49.0312 7.625 43.2188 3.2266 Q37.4062 -1.1719 28.375 -1.1719 Q17 -1.1719 10.3281 5.8359 Q3.6562 12.8438 3.6562 25.4844 Q3.6562 38.5781 10.3984 45.8047 Q17.1406 53.0312 27.875 53.0312 Q38.2812 53.0312 44.875 45.9531 Q51.4688 38.875 51.4688 26.0312 Q51.4688 25.25 51.4219 23.6875 L12.75 23.6875 Q13.2344 15.1406 17.5781 10.6016 Q21.9219 6.0625 28.4219 6.0625 Q33.25 6.0625 36.6719 8.6016 Q40.0938 11.1406 42.0938 16.7031 ZM13.2344 30.9062 L42.1875 30.9062 Q41.6094 37.4531 38.875 40.7188 Q34.6719 45.7969 27.9844 45.7969 Q21.9219 45.7969 17.7969 41.75 Q13.6719 37.7031 13.2344 30.9062 Z"
           horiz-adv-x="55.615234"
           unicode="e" />
        <glyph
           id="glyph44"
           d="M40.4375 19 L49.0781 17.875 Q47.6562 8.9375 41.8203 3.8828 Q35.9844 -1.1719 27.4844 -1.1719 Q16.8438 -1.1719 10.375 5.7891 Q3.9062 12.75 3.9062 25.7344 Q3.9062 34.125 6.6875 40.4297 Q9.4688 46.7344 15.1562 49.8828 Q20.8438 53.0312 27.5469 53.0312 Q35.9844 53.0312 41.3594 48.7578 Q46.7344 44.4844 48.25 36.625 L39.7031 35.2969 Q38.4844 40.5312 35.3828 43.1641 Q32.2812 45.7969 27.875 45.7969 Q21.2344 45.7969 17.0859 41.0391 Q12.9375 36.2812 12.9375 25.9844 Q12.9375 15.5312 16.9453 10.7969 Q20.9531 6.0625 27.3906 6.0625 Q32.5625 6.0625 36.0312 9.2344 Q39.5 12.4062 40.4375 19 Z"
           horiz-adv-x="50.0"
           unicode="c" />
        <glyph
           id="glyph46"
           d="M6.5938 0 L6.5938 51.8594 L14.5 51.8594 L14.5 44.4844 Q20.2188 53.0312 31 53.0312 Q35.6875 53.0312 39.625 51.3438 Q43.5625 49.6562 45.5156 46.9219 Q47.4688 44.1875 48.25 40.4375 Q48.7344 37.9844 48.7344 31.8906 L48.7344 0 L39.9375 0 L39.9375 31.5469 Q39.9375 36.9219 38.9141 39.5781 Q37.8906 42.2344 35.2812 43.8203 Q32.6719 45.4062 29.1562 45.4062 Q23.5312 45.4062 19.4531 41.8438 Q15.375 38.2812 15.375 28.3281 L15.375 0 L6.5938 0 Z"
           horiz-adv-x="55.615234"
           unicode="n" />
        <glyph
           id="glyph48"
           d="M6.6406 61.4688 L6.6406 71.5781 L15.4375 71.5781 L15.4375 61.4688 L6.6406 61.4688 ZM6.6406 0 L6.6406 51.8594 L15.4375 51.8594 L15.4375 0 L6.6406 0 Z"
           horiz-adv-x="22.216797"
           unicode="i" />
        <glyph
           id="glyph50"
           d="M25.7812 7.8594 L27.0469 0.0938 Q23.3438 -0.6875 20.4062 -0.6875 Q15.625 -0.6875 12.9922 0.8281 Q10.3594 2.3438 9.2812 4.8125 Q8.2031 7.2812 8.2031 15.1875 L8.2031 45.0156 L1.7656 45.0156 L1.7656 51.8594 L8.2031 51.8594 L8.2031 64.7031 L16.9375 69.9688 L16.9375 51.8594 L25.7812 51.8594 L25.7812 45.0156 L16.9375 45.0156 L16.9375 14.7031 Q16.9375 10.9375 17.4062 9.8672 Q17.875 8.7969 18.9219 8.1562 Q19.9688 7.5156 21.9219 7.5156 Q23.3906 7.5156 25.7812 7.8594 Z"
           horiz-adv-x="27.783203"
           unicode="t" />
        <glyph
           id="glyph52"
           d="M6.5938 -19.875 L6.5938 51.8594 L14.5938 51.8594 L14.5938 45.125 Q17.4375 49.0781 21 51.0547 Q24.5625 53.0312 29.6406 53.0312 Q36.2812 53.0312 41.3594 49.6094 Q46.4375 46.1875 49.0234 39.9609 Q51.6094 33.7344 51.6094 26.3125 Q51.6094 18.3594 48.7578 11.9844 Q45.9062 5.6094 40.4609 2.2188 Q35.0156 -1.1719 29 -1.1719 Q24.6094 -1.1719 21.1172 0.6875 Q17.625 2.5469 15.375 5.375 L15.375 -19.875 L6.5938 -19.875 ZM14.5469 25.6406 Q14.5469 15.625 18.6016 10.8438 Q22.6562 6.0625 28.4219 6.0625 Q34.2812 6.0625 38.4531 11.0156 Q42.625 15.9688 42.625 26.375 Q42.625 36.2812 38.5469 41.2109 Q34.4688 46.1406 28.8125 46.1406 Q23.1875 46.1406 18.8672 40.8906 Q14.5469 35.6406 14.5469 25.6406 Z"
           horiz-adv-x="55.615234"
           unicode="p" />
        <glyph
           id="glyph54"
           d="M3.3281 25.9219 Q3.3281 40.3281 11.3281 47.2656 Q18.0156 53.0312 27.6406 53.0312 Q38.3281 53.0312 45.1172 46.0234 Q51.9062 39.0156 51.9062 26.6562 Q51.9062 16.6562 48.9062 10.9141 Q45.9062 5.1719 40.1641 2 Q34.4219 -1.1719 27.6406 -1.1719 Q16.75 -1.1719 10.0391 5.8125 Q3.3281 12.7969 3.3281 25.9219 ZM12.3594 25.9219 Q12.3594 15.9688 16.7031 11.0156 Q21.0469 6.0625 27.6406 6.0625 Q34.1875 6.0625 38.5312 11.0391 Q42.875 16.0156 42.875 26.2188 Q42.875 35.8438 38.5 40.7969 Q34.125 45.75 27.6406 45.75 Q21.0469 45.75 16.7031 40.8203 Q12.3594 35.8906 12.3594 25.9219 Z"
           horiz-adv-x="55.615234"
           unicode="o" />
        <glyph
           id="glyph56"
           d="M6.5 0 L6.5 51.8594 L14.4062 51.8594 L14.4062 44 Q17.4375 49.5156 20 51.2734 Q22.5625 53.0312 25.6406 53.0312 Q30.0781 53.0312 34.6719 50.2031 L31.6406 42.0469 Q28.4219 43.9531 25.2031 43.9531 Q22.3125 43.9531 20.0156 42.2188 Q17.7188 40.4844 16.75 37.4062 Q15.2812 32.7188 15.2812 27.1562 L15.2812 0 L6.5 0 Z"
           horiz-adv-x="33.30078"
           unicode="r" />
        <glyph
           id="glyph58"
           d="M7.7188 0 L7.7188 71.5781 L34.7188 71.5781 Q41.8438 71.5781 45.6094 70.9062 Q50.875 70.0156 54.4453 67.5547 Q58.0156 65.0938 60.1875 60.6484 Q62.3594 56.2031 62.3594 50.875 Q62.3594 41.75 56.5469 35.4297 Q50.7344 29.1094 35.5469 29.1094 L17.1875 29.1094 L17.1875 0 L7.7188 0 ZM17.1875 37.5469 L35.6875 37.5469 Q44.875 37.5469 48.7344 40.9688 Q52.5938 44.3906 52.5938 50.5938 Q52.5938 55.0781 50.3203 58.2734 Q48.0469 61.4688 44.3438 62.5 Q41.9375 63.1406 35.5 63.1406 L17.1875 63.1406 L17.1875 37.5469 Z"
           horiz-adv-x="66.69922"
           unicode="P" />
        <glyph
           id="glyph60"
           d="M4.9844 -4.2969 L13.5312 -5.5625 Q14.0625 -9.5156 16.5 -11.3281 Q19.7812 -13.7656 25.4375 -13.7656 Q31.5469 -13.7656 34.8672 -11.3281 Q38.1875 -8.8906 39.3594 -4.5 Q40.0469 -1.8125 39.9844 6.7812 Q34.2344 0 25.6406 0 Q14.9375 0 9.0781 7.7188 Q3.2188 15.4375 3.2188 26.2188 Q3.2188 33.6406 5.9062 39.9141 Q8.5938 46.1875 13.6953 49.6094 Q18.7969 53.0312 25.6875 53.0312 Q34.8594 53.0312 40.8281 45.6094 L40.8281 51.8594 L48.9219 51.8594 L48.9219 7.0312 Q48.9219 -5.0781 46.4609 -10.1328 Q44 -15.1875 38.6484 -18.1172 Q33.2969 -21.0469 25.4844 -21.0469 Q16.2188 -21.0469 10.5 -16.875 Q4.7812 -12.7031 4.9844 -4.2969 ZM12.25 26.8594 Q12.25 16.6562 16.3047 11.9688 Q20.3594 7.2812 26.4688 7.2812 Q32.5156 7.2812 36.6172 11.9453 Q40.7188 16.6094 40.7188 26.5625 Q40.7188 36.0781 36.5 40.9141 Q32.2812 45.75 26.3125 45.75 Q20.4531 45.75 16.3516 40.9922 Q12.25 36.2344 12.25 26.8594 Z"
           horiz-adv-x="55.615234"
           unicode="g" />
        <glyph
           id="glyph62"
           d="M58.7969 25.0938 L68.2656 22.7031 Q65.2812 11.0312 57.5469 4.9062 Q49.8125 -1.2188 38.625 -1.2188 Q27.0469 -1.2188 19.7969 3.4922 Q12.5469 8.2031 8.7656 17.1406 Q4.9844 26.0781 4.9844 36.3281 Q4.9844 47.5156 9.2578 55.8359 Q13.5312 64.1562 21.4141 68.4766 Q29.2969 72.7969 38.7656 72.7969 Q49.5156 72.7969 56.8359 67.3281 Q64.1562 61.8594 67.0469 51.9531 L57.7188 49.75 Q55.2188 57.5625 50.4844 61.1328 Q45.75 64.7031 38.5781 64.7031 Q30.3281 64.7031 24.7812 60.7422 Q19.2344 56.7812 16.9922 50.1172 Q14.75 43.4531 14.75 36.375 Q14.75 27.25 17.4062 20.4375 Q20.0625 13.625 25.6797 10.2578 Q31.2969 6.8906 37.8438 6.8906 Q45.7969 6.8906 51.3203 11.4766 Q56.8438 16.0625 58.7969 25.0938 Z"
           horiz-adv-x="72.2168"
           unicode="C" />
        <glyph
           id="glyph64"
           d="M9.3281 0 L9.3281 71.5781 L18.7969 71.5781 L18.7969 0 L9.3281 0 Z"
           horiz-adv-x="27.783203"
           unicode="I" />
      </font>
    </defs>
    <g
       id="g70"
       style="fill:#ffffff;stroke:#ffffff">
      <rect
         id="rect68"
         clip-path="url(#clipPath1)"
         height="400"
         style="fill:none;stroke:none"
         width="600"
         y="0"
         x="0" />
    </g>
    <g
       id="g76"
       style="color-interpolation:sRGB;fill:#ffffff;stroke:#ffffff;color-rendering:optimizeSpeed;image-rendering:optimizeSpeed;shape-rendering:crispEdges;text-rendering:optimizeSpeed">
      <rect
         id="rect72"
         style="fill:none;stroke:none"
         y="0"
         height="400"
         width="600"
         x="0" />
      <path
         id="path74"
         d="M 87,321 H 543 V 30 H 87 Z"
         style="fill:none;stroke:none" />
    </g>
    <g
       id="g88"
       style="color-interpolation:linearRGB;fill:#262626;stroke:#262626;stroke-width:2.6667;stroke-linejoin:round;color-rendering:optimizeQuality;image-rendering:optimizeQuality;text-rendering:geometricPrecision">
      <line
         id="line78"
         y1="425.23428"
         x2="605.67596"
         x1="68.841904"
         style="fill:none;stroke-width:2.96934;stroke-miterlimit:10;stroke-dasharray:none"
         y2="425.23428" />
      <line
         id="line82"
         y1="425.23428"
         x2="222.22304"
         x1="222.22304"
         style="fill:none;stroke-width:2.96934;stroke-miterlimit:10;stroke-dasharray:none"
         y2="417.90366" />
      <line
         id="line84"
         y1="425.23428"
         x2="375.60419"
         x1="375.60419"
         style="fill:none;stroke-width:2.96934;stroke-miterlimit:10;stroke-dasharray:none"
         y2="417.90366" />
      <line
         id="line86"
         y1="425.23428"
         x2="528.98529"
         x1="528.98529"
         style="fill:none;stroke-width:2.96934;stroke-miterlimit:10;stroke-dasharray:none"
         y2="417.90366" />
    </g>
    <g
       id="g92"
       style="font-size:26.6667px;font-family:SansSerif;color-interpolation:linearRGB;fill:#262626;stroke:#262626;color-rendering:optimizeQuality;image-rendering:optimizeQuality;text-rendering:geometricPrecision"
       transform="translate(87,329)" />
    <g
       id="g96"
       style="font-size:26.6667px;font-family:SansSerif;color-interpolation:linearRGB;fill:#262626;stroke:#262626;color-rendering:optimizeQuality;image-rendering:optimizeQuality;text-rendering:geometricPrecision"
       transform="translate(217.2857,329)" />
    <g
       id="g100"
       style="font-size:26.6667px;font-family:SansSerif;color-interpolation:linearRGB;fill:#262626;stroke:#262626;color-rendering:optimizeQuality;image-rendering:optimizeQuality;text-rendering:geometricPrecision"
       transform="translate(347.5714,329)" />
    <g
       id="g104"
       style="font-size:26.6667px;font-family:SansSerif;color-interpolation:linearRGB;fill:#262626;stroke:#262626;color-rendering:optimizeQuality;image-rendering:optimizeQuality;text-rendering:geometricPrecision"
       transform="translate(477.8571,329)" />
    <g
       id="g108"
       style="font-size:29.3333px;font-family:SansSerif;color-interpolation:linearRGB;fill:#262626;stroke:#262626;color-rendering:optimizeQuality;image-rendering:optimizeQuality;text-rendering:geometricPrecision"
       transform="translate(315.0002,363)" />
    <g
       id="g120"
       style="color-interpolation:linearRGB;fill:#262626;stroke:#262626;stroke-width:2.6667;stroke-linejoin:round;color-rendering:optimizeQuality;image-rendering:optimizeQuality;text-rendering:geometricPrecision">
      <line
         id="line110"
         y1="425.23428"
         x2="68.841904"
         x1="68.841904"
         style="fill:none;stroke-width:3.66859"
         y2="-42.575298" />
      <line
         id="line114"
         y1="189.38812"
         x2="76.210243"
         x1="70.841904"
         style="fill:none;stroke-width:2.96934;stroke-miterlimit:10;stroke-dasharray:none"
         y2="189.38812" />
      <line
         id="line116"
         y1="73.406227"
         x2="74.862915"
         x1="69.548256"
         style="fill:none;stroke-width:2.96934;stroke-miterlimit:10;stroke-dasharray:none"
         y2="73.406227" />
      <line
         id="line118"
         y1="-42.575298"
         x2="74.210243"
         x1="68.841904"
         style="fill:none;stroke-width:2.96934;stroke-miterlimit:10;stroke-dasharray:none"
         y2="-42.575298" />
    </g>
    <g
       id="g124"
       style="font-size:26.6667px;font-family:SansSerif;color-interpolation:linearRGB;fill:#262626;stroke:#262626;color-rendering:optimizeQuality;image-rendering:optimizeQuality;text-rendering:geometricPrecision"
       transform="translate(79,321)" />
    <g
       id="g128"
       style="font-size:26.6667px;font-family:SansSerif;color-interpolation:linearRGB;fill:#262626;stroke:#262626;color-rendering:optimizeQuality;image-rendering:optimizeQuality;text-rendering:geometricPrecision"
       transform="translate(79,224)" />
    <g
       id="g132"
       style="font-size:26.6667px;font-family:SansSerif;color-interpolation:linearRGB;fill:#262626;stroke:#262626;color-rendering:optimizeQuality;image-rendering:optimizeQuality;text-rendering:geometricPrecision"
       transform="translate(79,127)" />
    <g
       id="g136"
       style="font-size:26.6667px;font-family:SansSerif;color-interpolation:linearRGB;fill:#262626;stroke:#262626;color-rendering:optimizeQuality;image-rendering:optimizeQuality;text-rendering:geometricPrecision"
       transform="translate(79,30)">
      <text
         transform="scale(0.85575512,1.1685586)"
         id="text134"
         style="font-size:36.6855px;stroke:none;stroke-width:1.37571"
         y="-47.661774"
         xml:space="preserve"
         x="-43.511536" />
    </g>
    <g
       id="g140"
       style="font-size:29.3333px;font-family:SansSerif;color-interpolation:linearRGB;fill:#262626;stroke:#262626;color-rendering:optimizeQuality;image-rendering:optimizeQuality;text-rendering:geometricPrecision"
       transform="rotate(-90,106.24995,69.24995)" />
    <g
       id="g146"
       style="color-interpolation:linearRGB;fill:#0000ff;stroke:#0000ff;stroke-width:2.6667;stroke-linecap:butt;stroke-linejoin:round;color-rendering:optimizeQuality;image-rendering:optimizeQuality;text-rendering:geometricPrecision">
      <path
         sodipodi:nodetypes="cccccccccccccccccccccccccccccccccccccccccccccccccccccc"
         id="path142"
         style="fill:none;fill-rule:evenodd;stroke-width:3.26232"
         d="m 73.412663,47.033204 9.752548,25.264764 9.752545,25.770592 9.752524,-20.340607 9.75239,-21.563629 9.75254,-80.956498 9.75254,39.284121 9.75255,-5.3190897 9.75255,16.3199897 9.75255,56.767305 9.75253,-60.38046 9.7524,82.730978 9.75254,27.80561 9.75256,-4.85194 9.75255,37.38566 19.50509,26.33081 v 0 l 9.75254,-12.00763 9.7524,40.69501 9.75255,36.63112 9.75255,5.346 9.75253,-30.66472 9.75255,26.81594 9.75254,-99.61289 9.7524,5.5729 9.75254,17.67253 9.75257,-52.41766 9.75254,24.96637 9.75255,-95.678818 9.75254,27.530496 9.75255,-18.167741 9.75254,-4.012331 9.75255,-7.112682 9.75238,39.845793 9.75255,43.820083 9.75255,-16.57657 9.75256,63.28189 9.75254,-41.0344 9.7524,94.57837 9.75254,-62.9325 9.75255,44.21476 9.75255,1.17271 9.75255,56.51659 9.75252,36.30093 9.75256,2.04812 9.75254,-50.57178 9.7524,-30.70503 9.75255,48.60956 9.75255,-55.70784 9.75254,42.10206 9.75256,-68.96725 9.75254,-5.6044 9.75256,-49.33139 9.75239,28.23602" />
      <path
         sodipodi:nodetypes="ccccccccccccccccccccccccccccccccccccccccccccccccccccccccccccc"
         id="path144"
         style="fill:none;fill-rule:evenodd;stroke:#ff0000;stroke-width:3.05959"
         d="m 73.269248,279.23464 8.575227,-8.45414 8.575229,16.35015 8.575213,10.12915 8.575083,17.95804 8.57522,-50.79985 8.57523,25.83776 8.57523,63.70785 8.57523,9.68585 8.57523,6.76246 8.57522,18.48995 8.5751,27.56894 8.57523,-69.25245 8.57522,72.72215 8.57523,-77.27714 8.57523,63.23555 8.57523,-51.14525 3.93499,-69.34144 6.25496,-22.86189 12.4421,27.9899 3.93499,-104.69002 10.89535,14.24606 7.02847,12.14517 5.48174,-54.22049 4.70824,-35.81911 8.57521,-17.16033 22.49596,24.66495 8.57523,7.34206 8.57523,21.53115 8.57525,38.14345 8.57522,-51.21794 8.57522,78.73665 8.57523,-2.92505 8.5751,13.78354 8.57523,-32.43265 8.57522,95.01366 8.57523,-73.56805 8.57523,54.51365 8.5751,-1.80646 8.57523,-34.60255 8.57522,-40.52354 8.57523,28.95215 8.57523,-27.32075 0.0681,-91.60613 10.12196,4.09178 7.02849,11.40271 6.25498,-54.489943 1.61486,-52.168799 12.44211,36.266187 7.02847,18.927023 4.70835,-69.627719 5.23043,-40.85563 31.25444,66.599741 8.57511,16.516337 8.57535,-40.9711304 8.57509,15.9409374 8.57523,26.942353 8.57523,68.166253 8.57523,-48.439846 8.57509,-9.874063 8.57523,18.209353" />
    </g>
    <g
       id="g150"
       style="color-interpolation:sRGB;fill:#ffffff;stroke:#ffffff;color-rendering:optimizeSpeed;image-rendering:optimizeSpeed;shape-rendering:crispEdges;text-rendering:optimizeSpeed">
      <path
         id="path148"
         d="M 532,107 V 41 H 402 v 66 z"
         style="fill:none;stroke:none" />
    </g>
    <g
       id="g154"
       style="font-size:24px;font-family:SansSerif;color-interpolation:linearRGB;color-rendering:optimizeQuality;image-rendering:optimizeQuality;text-rendering:geometricPrecision"
       transform="translate(449,58.3684)" />
    <g
       id="g158"
       style="color-interpolation:linearRGB;fill:#0000ff;stroke:#0000ff;stroke-width:2.6667;stroke-linecap:butt;stroke-linejoin:round;color-rendering:optimizeQuality;image-rendering:optimizeQuality;text-rendering:geometricPrecision" />
    <g
       id="g162"
       style="font-size:24px;font-family:SansSerif;color-interpolation:linearRGB;color-rendering:optimizeQuality;image-rendering:optimizeQuality;text-rendering:geometricPrecision"
       transform="translate(449,89.6316)" />
    <g
       id="g168"
       style="color-interpolation:linearRGB;fill:#ff0000;stroke:#ff0000;stroke-width:2.6667;stroke-linecap:butt;stroke-linejoin:round;color-rendering:optimizeQuality;image-rendering:optimizeQuality;text-rendering:geometricPrecision" />
  </g>
  <text
     id="text1003"
     y="95.237747"
     x="85.622604"
     style="font-size:31.676px;line-height:1.25;font-family:sans-serif;-inkscape-font-specification:sans-serif;stroke-width:0;stroke-miterlimit:10;stroke-dasharray:none"
     xml:space="preserve"
     transform="scale(1.0102276,0.98987596)"><tspan
       y="95.237747"
       x="85.622604"
       id="tspan1001"
       sodipodi:role="line"
       style="stroke-width:0">1</tspan></text>
  <text
     xml:space="preserve"
     style="font-style:normal;font-weight:normal;font-size:31.676px;line-height:1.25;font-family:sans-serif;-inkscape-font-specification:sans-serif;color-interpolation:auto;fill:#000000;fill-opacity:1;stroke:#000000;stroke-width:0;stroke-linecap:square;stroke-linejoin:miter;stroke-miterlimit:10;stroke-dasharray:none;stroke-dashoffset:0;stroke-opacity:1;color-rendering:auto;image-rendering:auto;shape-rendering:auto;text-rendering:auto"
     x="58.305927"
     y="301.83447"
     id="text1003-8"
     transform="scale(1.0102276,0.98987596)"><tspan
       sodipodi:role="line"
       id="tspan1001-3"
       x="58.305927"
       y="301.83447"
       style="stroke-width:0">0.8</tspan></text>
  <text
     xml:space="preserve"
     style="font-style:normal;font-weight:normal;font-size:31.676px;line-height:1.25;font-family:sans-serif;-inkscape-font-specification:sans-serif;color-interpolation:auto;fill:#000000;fill-opacity:1;stroke:#000000;stroke-width:0;stroke-linecap:square;stroke-linejoin:miter;stroke-miterlimit:10;stroke-dasharray:none;stroke-dashoffset:0;stroke-opacity:1;color-rendering:auto;image-rendering:auto;shape-rendering:auto;text-rendering:auto"
     x="59.950817"
     y="405.73871"
     id="text1003-1"
     transform="scale(1.0102276,0.98987596)"><tspan
       sodipodi:role="line"
       id="tspan1001-35"
       x="59.950817"
       y="405.73871"
       style="stroke-width:0">0.7</tspan></text>
  <text
     id="text1003-1-9"
     y="504.29758"
     x="62.608753"
     style="font-style:normal;font-weight:normal;font-size:31.676px;line-height:1.25;font-family:sans-serif;-inkscape-font-specification:sans-serif;color-interpolation:auto;fill:#000000;fill-opacity:1;stroke:#000000;stroke-width:0;stroke-linecap:square;stroke-linejoin:miter;stroke-miterlimit:10;stroke-dasharray:none;stroke-dashoffset:0;stroke-opacity:1;color-rendering:auto;image-rendering:auto;shape-rendering:auto;text-rendering:auto"
     xml:space="preserve"
     transform="scale(1.0102276,0.98987596)"><tspan
       y="504.29758"
       x="62.608753"
       id="tspan1001-35-7"
       sodipodi:role="line"
       style="stroke-width:0">0.6</tspan></text>
  <text
     id="text1003-8-9"
     y="198.86673"
     x="59.599693"
     style="font-style:normal;font-weight:normal;font-size:31.676px;line-height:1.25;font-family:sans-serif;-inkscape-font-specification:sans-serif;color-interpolation:auto;fill:#000000;fill-opacity:1;stroke:#000000;stroke-width:0;stroke-linecap:square;stroke-linejoin:miter;stroke-miterlimit:10;stroke-dasharray:none;stroke-dashoffset:0;stroke-opacity:1;color-rendering:auto;image-rendering:auto;shape-rendering:auto;text-rendering:auto"
     xml:space="preserve"
     transform="scale(1.0102276,0.98987596)"><tspan
       y="198.86673"
       x="59.599693"
       id="tspan1001-3-4"
       sodipodi:role="line"
       style="stroke-width:0">0.9</tspan></text>
  <line
     y2="388.83923"
     style="font-style:normal;font-weight:normal;font-size:12px;font-family:Dialog;color-interpolation:linearRGB;fill:none;fill-opacity:1;stroke:#262626;stroke-width:2.96963;stroke-linecap:square;stroke-linejoin:round;stroke-miterlimit:10;stroke-dasharray:none;stroke-dashoffset:0;stroke-opacity:1;color-rendering:optimizeQuality;image-rendering:optimizeQuality;shape-rendering:auto;text-rendering:geometricPrecision"
     x1="124.62782"
     x2="130.10143"
     y1="388.83923"
     id="line114-1" />
  <text
     xml:space="preserve"
     style="font-style:normal;font-weight:normal;font-size:31.676px;line-height:1.25;font-family:sans-serif;-inkscape-font-specification:sans-serif;color-interpolation:auto;fill:#000000;fill-opacity:1;stroke:#000000;stroke-width:0;stroke-linecap:square;stroke-linejoin:miter;stroke-miterlimit:10;stroke-dasharray:none;stroke-dashoffset:0;stroke-opacity:1;color-rendering:auto;image-rendering:auto;shape-rendering:auto;text-rendering:auto"
     x="114.16032"
     y="533.51929"
     id="text1003-1-9-3"
     transform="scale(1.0102276,0.98987596)"><tspan
       sodipodi:role="line"
       id="tspan1001-35-7-5"
       x="114.16032"
       y="533.51929"
       style="stroke-width:0">0</tspan></text>
  <text
     id="text1003-1-9-3-3"
     y="533.53473"
     x="247.55278"
     style="font-style:normal;font-weight:normal;font-size:31.676px;line-height:1.25;font-family:sans-serif;-inkscape-font-specification:sans-serif;color-interpolation:auto;fill:#000000;fill-opacity:1;stroke:#000000;stroke-width:0;stroke-linecap:square;stroke-linejoin:miter;stroke-miterlimit:10;stroke-dasharray:none;stroke-dashoffset:0;stroke-opacity:1;color-rendering:auto;image-rendering:auto;shape-rendering:auto;text-rendering:auto"
     xml:space="preserve"
     transform="scale(1.0102276,0.98987596)"><tspan
       y="533.53473"
       x="247.55278"
       id="tspan1001-35-7-5-3"
       sodipodi:role="line"
       style="stroke-width:0">200</tspan></text>
  <text
     xml:space="preserve"
     style="font-style:normal;font-weight:normal;font-size:31.676px;line-height:1.25;font-family:sans-serif;-inkscape-font-specification:sans-serif;color-interpolation:auto;fill:#000000;fill-opacity:1;stroke:#000000;stroke-width:0;stroke-linecap:square;stroke-linejoin:miter;stroke-miterlimit:10;stroke-dasharray:none;stroke-dashoffset:0;stroke-opacity:1;color-rendering:auto;image-rendering:auto;shape-rendering:auto;text-rendering:auto"
     x="401.75043"
     y="533.51929"
     id="text1003-1-9-3-3-2"
     transform="scale(1.0102276,0.98987596)"><tspan
       sodipodi:role="line"
       id="tspan1001-35-7-5-3-0"
       x="401.75043"
       y="533.51929"
       style="stroke-width:0">400</tspan></text>
  <text
     id="text1003-1-9-3-3-2-8"
     y="533.51929"
     x="556.27203"
     style="font-style:normal;font-weight:normal;font-size:31.676px;line-height:1.25;font-family:sans-serif;-inkscape-font-specification:sans-serif;color-interpolation:auto;fill:#000000;fill-opacity:1;stroke:#000000;stroke-width:0;stroke-linecap:square;stroke-linejoin:miter;stroke-miterlimit:10;stroke-dasharray:none;stroke-dashoffset:0;stroke-opacity:1;color-rendering:auto;image-rendering:auto;shape-rendering:auto;text-rendering:auto"
     xml:space="preserve"
     transform="scale(1.0102276,0.98987596)"><tspan
       y="533.51929"
       x="556.27203"
       id="tspan1001-35-7-5-3-0-9"
       sodipodi:role="line"
       style="stroke-width:0">600</tspan></text>
  <text
     id="text152-1"
     style="font-style:normal;font-weight:normal;font-size:24.0023px;font-family:SansSerif;color-interpolation:linearRGB;fill:#000000;fill-opacity:1;stroke:none;stroke-width:1.0001;stroke-linecap:square;stroke-linejoin:miter;stroke-miterlimit:10;stroke-dasharray:none;stroke-dashoffset:0;stroke-opacity:1;color-rendering:optimizeQuality;image-rendering:optimizeQuality;shape-rendering:auto;text-rendering:geometricPrecision"
     y="446.17755"
     xml:space="preserve"
     x="450.5369"
     transform="scale(1.0195096,0.98086372)">Cong.</text>
  <line
     id="line156-8"
     y1="428.32022"
     x2="456.26791"
     x1="415.48355"
     style="font-style:normal;font-weight:normal;font-size:12px;font-family:Dialog;color-interpolation:linearRGB;fill:none;fill-opacity:1;stroke:#0000ff;stroke-width:2.66696;stroke-linecap:butt;stroke-linejoin:round;stroke-miterlimit:10;stroke-dasharray:none;stroke-dashoffset:0;stroke-opacity:1;color-rendering:optimizeQuality;image-rendering:optimizeQuality;shape-rendering:auto;text-rendering:geometricPrecision"
     y2="428.32022" />
  <text
     id="text160-8"
     style="font-style:normal;font-weight:normal;font-size:24.0023px;font-family:SansSerif;color-interpolation:linearRGB;fill:#000000;fill-opacity:1;stroke:none;stroke-width:1.0001;stroke-linecap:square;stroke-linejoin:miter;stroke-miterlimit:10;stroke-dasharray:none;stroke-dashoffset:0;stroke-opacity:1;color-rendering:optimizeQuality;image-rendering:optimizeQuality;shape-rendering:auto;text-rendering:geometricPrecision"
     y="477.44379"
     xml:space="preserve"
     x="450.5369"
     transform="scale(1.0195096,0.98086372)">Incong.</text>
  <line
     id="line164-3"
     y1="458.98816"
     x2="456.26791"
     x1="415.48355"
     style="font-style:normal;font-weight:normal;font-size:12px;font-family:Dialog;color-interpolation:linearRGB;fill:none;fill-opacity:1;stroke:#ff0000;stroke-width:2.66696;stroke-linecap:butt;stroke-linejoin:round;stroke-miterlimit:10;stroke-dasharray:none;stroke-dashoffset:0;stroke-opacity:1;color-rendering:optimizeQuality;image-rendering:optimizeQuality;shape-rendering:auto;text-rendering:geometricPrecision"
     y2="458.98816" />
  <path
     id="path166-5"
     style="font-style:normal;font-weight:normal;font-size:12px;font-family:Dialog;color-interpolation:linearRGB;fill:none;fill-opacity:1;fill-rule:evenodd;stroke:#262626;stroke-width:2.81321;stroke-linecap:butt;stroke-linejoin:miter;stroke-miterlimit:10;stroke-dasharray:none;stroke-dashoffset:0;stroke-opacity:1;color-rendering:optimizeQuality;image-rendering:optimizeQuality;shape-rendering:auto;text-rendering:geometricPrecision"
     d="m 411.40512,476.02584 v -64.74331 h 147.48453 v 64.74331 z" />
  <text
     xml:space="preserve"
     style="font-style:normal;font-weight:normal;font-size:32px;line-height:1.25;font-family:sans-serif;-inkscape-font-specification:sans-serif;color-interpolation:auto;fill:#000000;fill-opacity:1;stroke:#000000;stroke-width:0;stroke-linecap:square;stroke-linejoin:miter;stroke-miterlimit:10;stroke-dasharray:none;stroke-dashoffset:0;stroke-opacity:1;color-rendering:auto;image-rendering:auto;shape-rendering:auto;text-rendering:auto"
     x="318.80704"
     y="567.31445"
     id="text1003-1-9-3-3-2-0"><tspan
       sodipodi:role="line"
       id="tspan1001-35-7-5-3-0-6"
       x="318.80704"
       y="567.31445">SOA (ms)</tspan></text>
  <text
     xml:space="preserve"
     style="font-style:normal;font-weight:normal;font-size:32px;line-height:1.25;font-family:sans-serif;-inkscape-font-specification:sans-serif;color-interpolation:auto;fill:#000000;fill-opacity:1;stroke:#000000;stroke-width:0;stroke-linecap:square;stroke-linejoin:miter;stroke-miterlimit:10;stroke-dasharray:none;stroke-dashoffset:0;stroke-opacity:1;color-rendering:auto;image-rendering:auto;shape-rendering:auto;text-rendering:auto"
     x="-433.53256"
     y="37.487759"
     id="text1003-1-9-3-3-2-0-0"
     transform="rotate(-90)"><tspan
       sodipodi:role="line"
       id="tspan1001-35-7-5-3-0-6-4"
       x="-433.53256"
       y="37.487759">Proportion correct</tspan></text>
  <circle
     style="fill:none;stroke:#000000;stroke-width:2.5;stroke-miterlimit:10;stroke-opacity:1"
     id="path958"
     cx="1060.7222"
     cy="293.27756"
     r="200" />
  <circle
     style="font-style:normal;font-weight:normal;font-size:12px;font-family:Dialog;color-interpolation:auto;fill:none;fill-opacity:1;stroke:#000000;stroke-width:2.5;stroke-linecap:square;stroke-linejoin:miter;stroke-miterlimit:10;stroke-dasharray:2.5, 10;stroke-dashoffset:0;stroke-opacity:1;color-rendering:auto;image-rendering:auto;shape-rendering:auto;text-rendering:auto"
     id="path958-0"
     cx="1060.4846"
     cy="293.05249"
     r="150" />
  <circle
     style="font-style:normal;font-weight:normal;font-size:12px;font-family:Dialog;color-interpolation:auto;fill:none;fill-opacity:1;stroke:#000000;stroke-width:2.5;stroke-linecap:square;stroke-linejoin:miter;stroke-miterlimit:10;stroke-dasharray:2.5, 10;stroke-dashoffset:0;stroke-opacity:1;color-rendering:auto;image-rendering:auto;shape-rendering:auto;text-rendering:auto"
     id="path958-0-6"
     cx="1061.3013"
     cy="293.38474"
     r="100" />
  <circle
     style="font-style:normal;font-weight:normal;font-size:12px;font-family:Dialog;color-interpolation:auto;fill:none;fill-opacity:1;stroke:#000000;stroke-width:2.5;stroke-linecap:square;stroke-linejoin:miter;stroke-miterlimit:10;stroke-dasharray:2.5, 10;stroke-dashoffset:0;stroke-opacity:1;color-rendering:auto;image-rendering:auto;shape-rendering:auto;text-rendering:auto"
     id="path958-0-6-4"
     cx="1061.307"
     cy="292.9404"
     r="50" />
  <path
     style="fill:none;stroke:#000000;stroke-width:2.5;stroke-linecap:butt;stroke-linejoin:miter;stroke-miterlimit:10;stroke-dasharray:2.5, 15;stroke-dashoffset:0;stroke-opacity:1"
     d="M 1062.2596,92.350829 V 492.35083"
     id="path1020" />
  <path
     style="font-style:normal;font-weight:normal;font-size:12px;font-family:Dialog;color-interpolation:auto;fill:none;fill-opacity:1;stroke:#000000;stroke-width:2.5;stroke-linecap:butt;stroke-linejoin:miter;stroke-miterlimit:10;stroke-dasharray:2.5, 15;stroke-dashoffset:0;stroke-opacity:1;color-rendering:auto;image-rendering:auto;shape-rendering:auto;text-rendering:auto"
     d="m 961.3097,120.07248 200,346.41016"
     id="path1020-3" />
  <path
     style="font-style:normal;font-weight:normal;font-size:12px;font-family:Dialog;color-interpolation:auto;fill:none;fill-opacity:1;stroke:#000000;stroke-width:2.5;stroke-linecap:butt;stroke-linejoin:miter;stroke-miterlimit:10;stroke-dasharray:2.5, 15;stroke-dashoffset:0;stroke-opacity:1;color-rendering:auto;image-rendering:auto;shape-rendering:auto;text-rendering:auto"
     d="m 889.90455,197.9776 346.41015,200"
     id="path1020-3-6" />
  <path
     style="font-style:normal;font-weight:normal;font-size:12px;font-family:Dialog;color-interpolation:auto;fill:none;fill-opacity:1;stroke:#000000;stroke-width:2.5;stroke-linecap:butt;stroke-linejoin:miter;stroke-miterlimit:10;stroke-dasharray:2.5, 15;stroke-dashoffset:0;stroke-opacity:1;color-rendering:auto;image-rendering:auto;shape-rendering:auto;text-rendering:auto"
     d="m 864.20096,298.2901 400.00004,-10e-6"
     id="path1020-3-6-9" />
  <path
     style="font-style:normal;font-weight:normal;font-size:12px;font-family:Dialog;color-interpolation:auto;fill:none;fill-opacity:1;stroke:#000000;stroke-width:2.5;stroke-linecap:butt;stroke-linejoin:miter;stroke-miterlimit:10;stroke-dasharray:2.5, 15;stroke-dashoffset:0;stroke-opacity:1;color-rendering:auto;image-rendering:auto;shape-rendering:auto;text-rendering:auto"
     d="M 890.45458,400.32763 1236.8648,200.3276"
     id="path1020-3-6-9-4" />
  <path
     style="font-style:normal;font-weight:normal;font-size:12px;font-family:Dialog;color-interpolation:auto;fill:none;fill-opacity:1;stroke:#000000;stroke-width:2.5;stroke-linecap:butt;stroke-linejoin:miter;stroke-miterlimit:10;stroke-dasharray:2.5, 15;stroke-dashoffset:0;stroke-opacity:1;color-rendering:auto;image-rendering:auto;shape-rendering:auto;text-rendering:auto"
     d="m 964.0097,473.3827 200,-346.41021"
     id="path1020-3-6-9-4-1" />
  <text
     xml:space="preserve"
     style="font-style:normal;font-weight:normal;font-size:32px;line-height:1.25;font-family:sans-serif;-inkscape-font-specification:sans-serif;color-interpolation:auto;fill:#000000;fill-opacity:1;stroke:#000000;stroke-width:0;stroke-linecap:square;stroke-linejoin:miter;stroke-miterlimit:10;stroke-dasharray:none;stroke-dashoffset:0;stroke-opacity:1;color-rendering:auto;image-rendering:auto;shape-rendering:auto;text-rendering:auto"
     x="1041.5305"
     y="78.263092"
     id="text1003-1-9-3-3-2-0-5"><tspan
       sodipodi:role="line"
       id="tspan1001-35-7-5-3-0-6-6"
       x="1041.5305"
       y="78.263092">90</tspan></text>
  <text
     xml:space="preserve"
     style="font-style:normal;font-weight:normal;font-size:32px;line-height:1.25;font-family:sans-serif;-inkscape-font-specification:sans-serif;color-interpolation:auto;fill:#000000;fill-opacity:1;stroke:#000000;stroke-width:0;stroke-linecap:square;stroke-linejoin:miter;stroke-miterlimit:10;stroke-dasharray:none;stroke-dashoffset:0;stroke-opacity:1;color-rendering:auto;image-rendering:auto;shape-rendering:auto;text-rendering:auto"
     x="1272.7241"
     y="309.6026"
     id="text1003-1-9-3-3-2-0-5-8"><tspan
       sodipodi:role="line"
       id="tspan1001-35-7-5-3-0-6-6-9"
       x="1272.7241"
       y="309.6026">0</tspan></text>
  <text
     xml:space="preserve"
     style="font-style:normal;font-weight:normal;font-size:32px;line-height:1.25;font-family:sans-serif;-inkscape-font-specification:sans-serif;color-interpolation:auto;fill:#000000;fill-opacity:1;stroke:#000000;stroke-width:0;stroke-linecap:square;stroke-linejoin:miter;stroke-miterlimit:10;stroke-dasharray:none;stroke-dashoffset:0;stroke-opacity:1;color-rendering:auto;image-rendering:auto;shape-rendering:auto;text-rendering:auto"
     x="1032.1722"
     y="531.20453"
     id="text1003-1-9-3-3-2-0-5-9"><tspan
       sodipodi:role="line"
       id="tspan1001-35-7-5-3-0-6-6-3"
       x="1032.1722"
       y="531.20453">270</tspan></text>
  <text
     xml:space="preserve"
     style="font-style:normal;font-weight:normal;font-size:32px;line-height:1.25;font-family:sans-serif;-inkscape-font-specification:sans-serif;color-interpolation:auto;fill:#000000;fill-opacity:1;stroke:#000000;stroke-width:0;stroke-linecap:square;stroke-linejoin:miter;stroke-miterlimit:10;stroke-dasharray:none;stroke-dashoffset:0;stroke-opacity:1;color-rendering:auto;image-rendering:auto;shape-rendering:auto;text-rendering:auto"
     x="787.43268"
     y="310.78543"
     id="text1003-1-9-3-3-2-0-5-9-7"><tspan
       sodipodi:role="line"
       id="tspan1001-35-7-5-3-0-6-6-3-7"
       x="787.43268"
       y="310.78543">180</tspan></text>
  <text
     xml:space="preserve"
     style="font-style:normal;font-weight:normal;font-size:24px;line-height:1.25;font-family:sans-serif;-inkscape-font-specification:sans-serif;color-interpolation:auto;fill:#000000;fill-opacity:1;stroke:#000000;stroke-width:0;stroke-linecap:square;stroke-linejoin:miter;stroke-miterlimit:10;stroke-dasharray:none;stroke-dashoffset:0;stroke-opacity:1;color-rendering:auto;image-rendering:auto;shape-rendering:auto;text-rendering:auto"
     x="1068.4209"
     y="135.70891"
     id="text1003-1-9-3-3-2-0-5-9-7-9"><tspan
       sodipodi:role="line"
       id="tspan1001-35-7-5-3-0-6-6-3-7-5"
       x="1068.4209"
       y="135.70891">0.8</tspan></text>
  <text
     xml:space="preserve"
     style="font-style:normal;font-weight:normal;font-size:24px;line-height:1.25;font-family:sans-serif;-inkscape-font-specification:sans-serif;color-interpolation:auto;fill:#000000;fill-opacity:1;stroke:#000000;stroke-width:0;stroke-linecap:square;stroke-linejoin:miter;stroke-miterlimit:10;stroke-dasharray:none;stroke-dashoffset:0;stroke-opacity:1;color-rendering:auto;image-rendering:auto;shape-rendering:auto;text-rendering:auto"
     x="1066.2681"
     y="188.02618"
     id="text1003-1-9-3-3-2-0-5-9-7-9-3"><tspan
       sodipodi:role="line"
       id="tspan1001-35-7-5-3-0-6-6-3-7-5-7"
       x="1066.2681"
       y="188.02618">0.6</tspan></text>
  <text
     xml:space="preserve"
     style="font-style:normal;font-weight:normal;font-size:24px;line-height:1.25;font-family:sans-serif;-inkscape-font-specification:sans-serif;color-interpolation:auto;fill:#000000;fill-opacity:1;stroke:#000000;stroke-width:0;stroke-linecap:square;stroke-linejoin:miter;stroke-miterlimit:10;stroke-dasharray:none;stroke-dashoffset:0;stroke-opacity:1;color-rendering:auto;image-rendering:auto;shape-rendering:auto;text-rendering:auto"
     x="1063.9181"
     y="239.72662"
     id="text1003-1-9-3-3-2-0-5-9-7-9-30"><tspan
       sodipodi:role="line"
       id="tspan1001-35-7-5-3-0-6-6-3-7-5-0"
       x="1063.9181"
       y="239.72662">0.4</tspan></text>
  <path
     style="fill:#000000;fill-opacity:1;stroke:#000000;stroke-width:5;stroke-linecap:butt;stroke-linejoin:miter;stroke-miterlimit:10;stroke-dasharray:none;stroke-opacity:1;marker-end:url(#Arrow1Mend)"
     d="M 1063.6597,295.62758 942.6336,290.92754"
     id="path1315" />
  <text
     xml:space="preserve"
     style="font-style:normal;font-variant:normal;font-weight:bold;font-stretch:normal;font-size:42.6667px;line-height:1.25;font-family:sans-serif;-inkscape-font-specification:'sans-serif Bold';color-interpolation:auto;fill:#000000;fill-opacity:1;stroke:#000000;stroke-width:0;stroke-linecap:square;stroke-linejoin:miter;stroke-miterlimit:10;stroke-dasharray:none;stroke-dashoffset:0;stroke-opacity:1;color-rendering:auto;image-rendering:auto;shape-rendering:auto;text-rendering:auto"
     x="-0.50000036"
     y="31.020857"
     id="text1003-1-9-3-3-2-0-5-9-7-2"><tspan
       sodipodi:role="line"
       id="tspan1001-35-7-5-3-0-6-6-3-7-4"
       x="-0.50000036"
       y="31.020857">A</tspan></text>
  <text
     xml:space="preserve"
     style="font-style:normal;font-variant:normal;font-weight:bold;font-stretch:normal;font-size:42.6667px;line-height:1.25;font-family:sans-serif;-inkscape-font-specification:'sans-serif Bold';color-interpolation:auto;fill:#000000;fill-opacity:1;stroke:#000000;stroke-width:0;stroke-linecap:square;stroke-linejoin:miter;stroke-miterlimit:10;stroke-dasharray:none;stroke-dashoffset:0;stroke-opacity:1;color-rendering:auto;image-rendering:auto;shape-rendering:auto;text-rendering:auto"
     x="771.49445"
     y="31.020857"
     id="text1003-1-9-3-3-2-0-5-9-7-2-4"><tspan
       sodipodi:role="line"
       id="tspan1001-35-7-5-3-0-6-6-3-7-4-0"
       x="771.49445"
       y="31.020857">B</tspan></text>
</svg>
